       Pechora_Times 2013 01                     Matt_Murdock       BCEA
       Pechora_Times 2013 01                      Barry_Allen       EDDC
       Pechora_Times 2013 01                      Barry_Allen       AABC
       Pechora_Times 2013 02                     Peter_Parker       BACC
       Pechora_Times 2013 02                    Harold_Jordan       BECD
       Pechora_Times 2013 02                     Matt_Murdock       CBBD
       Pechora_Times 2013 03                      Bruce_Wayne       CBBD
       Pechora_Times 2013 03                     Peter_Parker       CCEA
       Pechora_Times 2013 03                      Bruce_Wayne       DBCD
       Pechora_Times 2013 04                    Harold_Jordan       EBBD
       Pechora_Times 2013 04                      Bruce_Wayne       CECC
       Pechora_Times 2013 04                    Harold_Jordan       EDBE
       Pechora_Times 2013 05                     Peter_Parker       BAAC
       Pechora_Times 2013 05                    Harold_Jordan       BACE
       Pechora_Times 2013 05                    Harold_Jordan       BAAE
       Pechora_Times 2013 06                      Barry_Allen       ABBD
       Pechora_Times 2013 06                     Peter_Parker       EDEE
       Pechora_Times 2013 06                    Harold_Jordan       ABBB
       Pechora_Times 2013 07                     Matt_Murdock       EEBD
       Pechora_Times 2013 07                     Matt_Murdock       DDCE
       Pechora_Times 2013 07                     Peter_Parker       DAED
       Pechora_Times 2013 08                     Peter_Parker       ACBD
       Pechora_Times 2013 08                     Peter_Parker       BAEC
       Pechora_Times 2013 08                     Peter_Parker       ECDC
       Pechora_Times 2013 09                     Matt_Murdock       BABB
       Pechora_Times 2013 09                    Harold_Jordan       CAEB
       Pechora_Times 2013 09                    Harold_Jordan       AABE
       Pechora_Times 2013 10                      Bruce_Wayne       ACBC
       Pechora_Times 2013 10                     Matt_Murdock       CCDD
       Pechora_Times 2013 10                     Peter_Parker       EEDB
       Pechora_Times 2013 11                      Bruce_Wayne       CBBA
       Pechora_Times 2013 11                     Matt_Murdock       DABC
       Pechora_Times 2013 11                      Barry_Allen       AEEC
       Pechora_Times 2013 12                      Barry_Allen       DABC
       Pechora_Times 2013 12                     Peter_Parker       BBEA
       Pechora_Times 2013 12                    Harold_Jordan       BDED
    Zelenyi_bumerang 2013 01                     Peter_Parker       BEDE
    Zelenyi_bumerang 2013 01                     Matt_Murdock       DADC
    Zelenyi_bumerang 2013 01                     Matt_Murdock       DDDD
    Zelenyi_bumerang 2013 02                    Harold_Jordan       BACD
    Zelenyi_bumerang 2013 02                      Barry_Allen       EBAB
    Zelenyi_bumerang 2013 02                      Bruce_Wayne       EEBD
    Zelenyi_bumerang 2013 03                      Barry_Allen       EDEE
    Zelenyi_bumerang 2013 03                      Bruce_Wayne       CAAD
    Zelenyi_bumerang 2013 03                      Barry_Allen       DCED
    Zelenyi_bumerang 2013 04                      Barry_Allen       ADDA
    Zelenyi_bumerang 2013 04                      Barry_Allen       DBED
    Zelenyi_bumerang 2013 04                    Harold_Jordan       CCCD
    Zelenyi_bumerang 2013 05                      Barry_Allen       DEAC
    Zelenyi_bumerang 2013 05                      Bruce_Wayne       BADB
    Zelenyi_bumerang 2013 05                     Peter_Parker       CECA
    Zelenyi_bumerang 2013 06                     Matt_Murdock       BCBA
    Zelenyi_bumerang 2013 06                     Matt_Murdock       ECEB
    Zelenyi_bumerang 2013 06                     Matt_Murdock       DCBB
    Zelenyi_bumerang 2013 07                     Matt_Murdock       CBCE
    Zelenyi_bumerang 2013 07                      Barry_Allen       CAAD
    Zelenyi_bumerang 2013 07                      Bruce_Wayne       BDBE
    Zelenyi_bumerang 2013 08                      Barry_Allen       DCAC
    Zelenyi_bumerang 2013 08                    Harold_Jordan       DBCC
    Zelenyi_bumerang 2013 08                     Matt_Murdock       CEEB
    Zelenyi_bumerang 2013 09                     Matt_Murdock       BEDC
    Zelenyi_bumerang 2013 09                      Barry_Allen       AEEB
    Zelenyi_bumerang 2013 09                     Matt_Murdock       AADD
    Zelenyi_bumerang 2013 10                      Barry_Allen       DEBC
    Zelenyi_bumerang 2013 10                      Barry_Allen       ECBE
    Zelenyi_bumerang 2013 10                      Barry_Allen       ACBB
    Zelenyi_bumerang 2013 11                     Peter_Parker       DCAE
    Zelenyi_bumerang 2013 11                     Matt_Murdock       BBBB
    Zelenyi_bumerang 2013 11                     Peter_Parker       DAAD
    Zelenyi_bumerang 2013 12                     Peter_Parker       DCAD
    Zelenyi_bumerang 2013 12                      Barry_Allen       BDBC
    Zelenyi_bumerang 2013 12                      Barry_Allen       EBCE
        Vasuki_today 2013 01                      Barry_Allen       AADB
        Vasuki_today 2013 01                      Barry_Allen       ECED
        Vasuki_today 2013 01                    Harold_Jordan       EAAE
        Vasuki_today 2013 02                      Barry_Allen       DECD
        Vasuki_today 2013 02                      Barry_Allen       CADB
        Vasuki_today 2013 02                     Peter_Parker       ACEE
        Vasuki_today 2013 03                      Barry_Allen       EECE
        Vasuki_today 2013 03                     Matt_Murdock       ACCD
        Vasuki_today 2013 03                      Barry_Allen       DADD
        Vasuki_today 2013 04                      Barry_Allen       ACAD
        Vasuki_today 2013 04                      Barry_Allen       CECA
        Vasuki_today 2013 04                      Bruce_Wayne       EDCB
        Vasuki_today 2013 05                      Bruce_Wayne       DCAD
        Vasuki_today 2013 05                      Barry_Allen       BCCC
        Vasuki_today 2013 05                      Bruce_Wayne       EACA
        Vasuki_today 2013 06                     Matt_Murdock       EAAA
        Vasuki_today 2013 06                      Barry_Allen       BABC
        Vasuki_today 2013 06                     Peter_Parker       AAEA
        Vasuki_today 2013 07                      Barry_Allen       EABE
        Vasuki_today 2013 07                      Bruce_Wayne       CBBD
        Vasuki_today 2013 07                     Matt_Murdock       BEDE
        Vasuki_today 2013 08                     Peter_Parker       CACA
        Vasuki_today 2013 08                     Peter_Parker       ACAA
        Vasuki_today 2013 08                      Bruce_Wayne       CDDE
        Vasuki_today 2013 09                      Bruce_Wayne       CBAC
        Vasuki_today 2013 09                      Barry_Allen       EACE
        Vasuki_today 2013 09                      Bruce_Wayne       DACC
        Vasuki_today 2013 10                     Matt_Murdock       BCBA
        Vasuki_today 2013 10                      Barry_Allen       EACB
        Vasuki_today 2013 10                     Matt_Murdock       BBBB
        Vasuki_today 2013 11                      Barry_Allen       DAAE
        Vasuki_today 2013 11                     Matt_Murdock       DABC
        Vasuki_today 2013 11                      Barry_Allen       ADDD
        Vasuki_today 2013 12                      Barry_Allen       CCAD
        Vasuki_today 2013 12                      Bruce_Wayne       DACE
        Vasuki_today 2013 12                      Barry_Allen       DDCB
       Pechora_Times 2014 01                      Barry_Allen       ADDE
       Pechora_Times 2014 01                    Harold_Jordan       ABEA
       Pechora_Times 2014 01                     Peter_Parker       CADA
       Pechora_Times 2014 02                      Barry_Allen       BBCB
       Pechora_Times 2014 02                      Barry_Allen       CBEB
       Pechora_Times 2014 02                     Peter_Parker       CCCC
       Pechora_Times 2014 03                      Barry_Allen       ABDE
       Pechora_Times 2014 03                     Matt_Murdock       AECB
       Pechora_Times 2014 03                     Peter_Parker       DCEE
       Pechora_Times 2014 04                     Matt_Murdock       CCEC
       Pechora_Times 2014 04                     Matt_Murdock       CDBA
       Pechora_Times 2014 04                      Barry_Allen       DADD
       Pechora_Times 2014 05                      Bruce_Wayne       EBBA
       Pechora_Times 2014 05                      Barry_Allen       ABAB
       Pechora_Times 2014 05                      Barry_Allen       ADAD
       Pechora_Times 2014 06                      Barry_Allen       BDEC
       Pechora_Times 2014 06                      Barry_Allen       BDBA
       Pechora_Times 2014 06                      Bruce_Wayne       DBAD
       Pechora_Times 2014 07                     Matt_Murdock       AACC
       Pechora_Times 2014 07                     Matt_Murdock       CEDC
       Pechora_Times 2014 07                     Matt_Murdock       BDAD
       Pechora_Times 2014 08                    Harold_Jordan       CDAC
       Pechora_Times 2014 08                     Peter_Parker       CAEB
       Pechora_Times 2014 08                      Bruce_Wayne       DAAC
       Pechora_Times 2014 09                      Bruce_Wayne       AADE
       Pechora_Times 2014 09                     Matt_Murdock       AEDA
       Pechora_Times 2014 09                      Bruce_Wayne       CAEB
       Pechora_Times 2014 10                      Bruce_Wayne       EADC
       Pechora_Times 2014 10                     Matt_Murdock       EBBC
       Pechora_Times 2014 10                      Barry_Allen       BEAD
       Pechora_Times 2014 11                     Matt_Murdock       BCAD
       Pechora_Times 2014 11                      Bruce_Wayne       CEBC
       Pechora_Times 2014 11                      Barry_Allen       ADCE
       Pechora_Times 2014 12                      Bruce_Wayne       BDAC
       Pechora_Times 2014 12                     Peter_Parker       EDBD
       Pechora_Times 2014 12                     Peter_Parker       DABE
    Zelenyi_bumerang 2014 01                      Barry_Allen       ECED
    Zelenyi_bumerang 2014 01                     Matt_Murdock       EDCA
    Zelenyi_bumerang 2014 01                      Barry_Allen       AEDC
    Zelenyi_bumerang 2014 02                      Barry_Allen       CEDB
    Zelenyi_bumerang 2014 02                      Barry_Allen       DAAC
    Zelenyi_bumerang 2014 02                     Matt_Murdock       DECE
    Zelenyi_bumerang 2014 03                      Barry_Allen       EEAA
    Zelenyi_bumerang 2014 03                      Bruce_Wayne       DDAB
    Zelenyi_bumerang 2014 03                    Harold_Jordan       CCCC
    Zelenyi_bumerang 2014 04                     Matt_Murdock       DBDD
    Zelenyi_bumerang 2014 04                    Harold_Jordan       AEAA
    Zelenyi_bumerang 2014 04                      Barry_Allen       DCDD
    Zelenyi_bumerang 2014 05                    Harold_Jordan       EDEB
    Zelenyi_bumerang 2014 05                     Peter_Parker       CDAB
    Zelenyi_bumerang 2014 05                     Matt_Murdock       EDBA
    Zelenyi_bumerang 2014 06                      Barry_Allen       DAAD
    Zelenyi_bumerang 2014 06                     Matt_Murdock       BDAB
    Zelenyi_bumerang 2014 06                    Harold_Jordan       DDEE
    Zelenyi_bumerang 2014 07                     Peter_Parker       DECB
    Zelenyi_bumerang 2014 07                      Barry_Allen       ADBB
    Zelenyi_bumerang 2014 07                      Barry_Allen       ABEB
    Zelenyi_bumerang 2014 08                      Bruce_Wayne       AECA
    Zelenyi_bumerang 2014 08                      Barry_Allen       CBDC
    Zelenyi_bumerang 2014 08                      Bruce_Wayne       BDEE
    Zelenyi_bumerang 2014 09                     Matt_Murdock       BCAD
    Zelenyi_bumerang 2014 09                     Peter_Parker       BBBE
    Zelenyi_bumerang 2014 09                    Harold_Jordan       BCBD
    Zelenyi_bumerang 2014 10                      Bruce_Wayne       AABA
    Zelenyi_bumerang 2014 10                    Harold_Jordan       ABCB
    Zelenyi_bumerang 2014 10                      Bruce_Wayne       ACED
    Zelenyi_bumerang 2014 11                      Bruce_Wayne       BCDC
    Zelenyi_bumerang 2014 11                     Peter_Parker       EDED
    Zelenyi_bumerang 2014 11                      Barry_Allen       DECD
    Zelenyi_bumerang 2014 12                    Harold_Jordan       DAAD
    Zelenyi_bumerang 2014 12                     Matt_Murdock       AABE
    Zelenyi_bumerang 2014 12                      Bruce_Wayne       BDEC
        Vasuki_today 2014 01                      Barry_Allen       EDCD
        Vasuki_today 2014 01                      Barry_Allen       ACDB
        Vasuki_today 2014 01                      Barry_Allen       DEDE
        Vasuki_today 2014 02                      Barry_Allen       DABE
        Vasuki_today 2014 02                      Barry_Allen       ADDE
        Vasuki_today 2014 02                     Peter_Parker       DCAB
        Vasuki_today 2014 03                      Bruce_Wayne       DBED
        Vasuki_today 2014 03                     Peter_Parker       ECED
        Vasuki_today 2014 03                      Bruce_Wayne       BECA
        Vasuki_today 2014 04                      Barry_Allen       AAEC
        Vasuki_today 2014 04                    Harold_Jordan       CEAA
        Vasuki_today 2014 04                      Barry_Allen       EAAB
        Vasuki_today 2014 05                      Bruce_Wayne       AEAD
        Vasuki_today 2014 05                      Bruce_Wayne       DCCB
        Vasuki_today 2014 05                      Barry_Allen       DDBA
        Vasuki_today 2014 06                     Peter_Parker       DDED
        Vasuki_today 2014 06                     Matt_Murdock       BAEB
        Vasuki_today 2014 06                     Matt_Murdock       CDAD
        Vasuki_today 2014 07                      Bruce_Wayne       BEAD
        Vasuki_today 2014 07                      Bruce_Wayne       DBAB
        Vasuki_today 2014 07                      Bruce_Wayne       CDEE
        Vasuki_today 2014 08                     Peter_Parker       ABBB
        Vasuki_today 2014 08                      Barry_Allen       BCBE
        Vasuki_today 2014 08                    Harold_Jordan       BBCB
        Vasuki_today 2014 09                     Peter_Parker       EACD
        Vasuki_today 2014 09                      Bruce_Wayne       BACD
        Vasuki_today 2014 09                     Matt_Murdock       BDDC
        Vasuki_today 2014 10                      Barry_Allen       CBCB
        Vasuki_today 2014 10                      Barry_Allen       EEEB
        Vasuki_today 2014 10                      Barry_Allen       DBCE
        Vasuki_today 2014 11                      Barry_Allen       DDBC
        Vasuki_today 2014 11                    Harold_Jordan       EEDC
        Vasuki_today 2014 11                    Harold_Jordan       ACEE
        Vasuki_today 2014 12                      Barry_Allen       DDBE
        Vasuki_today 2014 12                      Barry_Allen       BBCD
        Vasuki_today 2014 12                      Barry_Allen       CBCC
       Pechora_Times 2015 01                     Peter_Parker       CDCC
       Pechora_Times 2015 01                      Bruce_Wayne       ACAD
       Pechora_Times 2015 01                      Barry_Allen       CDCA
       Pechora_Times 2015 02                      Barry_Allen       ACCB
       Pechora_Times 2015 02                      Barry_Allen       DCDB
       Pechora_Times 2015 02                      Barry_Allen       AEAD
       Pechora_Times 2015 03                    Harold_Jordan       AAAC
       Pechora_Times 2015 03                      Barry_Allen       AACB
       Pechora_Times 2015 03                      Barry_Allen       DBEB
       Pechora_Times 2015 04                     Matt_Murdock       EDDA
       Pechora_Times 2015 04                    Harold_Jordan       BAAD
       Pechora_Times 2015 04                     Peter_Parker       AAEC
       Pechora_Times 2015 05                     Peter_Parker       BEEE
       Pechora_Times 2015 05                      Barry_Allen       DADA
       Pechora_Times 2015 05                      Bruce_Wayne       CBCD
       Pechora_Times 2015 06                     Matt_Murdock       BEEB
       Pechora_Times 2015 06                     Matt_Murdock       AACE
       Pechora_Times 2015 06                    Harold_Jordan       DEAD
       Pechora_Times 2015 07                      Barry_Allen       BACD
       Pechora_Times 2015 07                     Peter_Parker       EBBB
       Pechora_Times 2015 07                      Barry_Allen       EAEE
       Pechora_Times 2015 08                      Bruce_Wayne       BBEE
       Pechora_Times 2015 08                      Barry_Allen       AABA
       Pechora_Times 2015 08                     Peter_Parker       EEBD
       Pechora_Times 2015 09                      Barry_Allen       EAAD
       Pechora_Times 2015 09                      Bruce_Wayne       BCDD
       Pechora_Times 2015 09                     Peter_Parker       DBAC
       Pechora_Times 2015 10                     Matt_Murdock       EACC
       Pechora_Times 2015 10                    Harold_Jordan       AEEE
       Pechora_Times 2015 10                      Barry_Allen       AAEC
       Pechora_Times 2015 11                      Bruce_Wayne       CCCE
       Pechora_Times 2015 11                    Harold_Jordan       AEAD
       Pechora_Times 2015 11                     Peter_Parker       BCCE
       Pechora_Times 2015 12                     Matt_Murdock       CCCD
       Pechora_Times 2015 12                      Barry_Allen       DDEE
       Pechora_Times 2015 12                    Harold_Jordan       BEDA
    Zelenyi_bumerang 2015 01                      Barry_Allen       BACC
    Zelenyi_bumerang 2015 01                     Matt_Murdock       CBEC
    Zelenyi_bumerang 2015 01                     Matt_Murdock       DCBB
    Zelenyi_bumerang 2015 02                    Harold_Jordan       DDCD
    Zelenyi_bumerang 2015 02                      Barry_Allen       ABCB
    Zelenyi_bumerang 2015 02                      Bruce_Wayne       AEBC
    Zelenyi_bumerang 2015 03                     Peter_Parker       DECD
    Zelenyi_bumerang 2015 03                     Matt_Murdock       BBDD
    Zelenyi_bumerang 2015 03                      Barry_Allen       BBCC
    Zelenyi_bumerang 2015 04                      Bruce_Wayne       CDAD
    Zelenyi_bumerang 2015 04                      Barry_Allen       DCDD
    Zelenyi_bumerang 2015 04                      Bruce_Wayne       ADBA
    Zelenyi_bumerang 2015 05                      Bruce_Wayne       CEEB
    Zelenyi_bumerang 2015 05                      Barry_Allen       CDDE
    Zelenyi_bumerang 2015 05                     Matt_Murdock       CABC
    Zelenyi_bumerang 2015 06                      Barry_Allen       CACE
    Zelenyi_bumerang 2015 06                      Barry_Allen       ADCD
    Zelenyi_bumerang 2015 06                      Barry_Allen       AECC
    Zelenyi_bumerang 2015 07                      Barry_Allen       CDBC
    Zelenyi_bumerang 2015 07                      Barry_Allen       DBDD
    Zelenyi_bumerang 2015 07                      Barry_Allen       DBCA
    Zelenyi_bumerang 2015 08                     Matt_Murdock       DEBD
    Zelenyi_bumerang 2015 08                     Matt_Murdock       CADB
    Zelenyi_bumerang 2015 08                      Bruce_Wayne       AEDD
    Zelenyi_bumerang 2015 09                      Barry_Allen       DBCD
    Zelenyi_bumerang 2015 09                     Peter_Parker       AAAB
    Zelenyi_bumerang 2015 09                     Peter_Parker       DAAD
    Zelenyi_bumerang 2015 10                      Barry_Allen       CDAB
    Zelenyi_bumerang 2015 10                      Barry_Allen       AECC
    Zelenyi_bumerang 2015 10                      Barry_Allen       DCEE
    Zelenyi_bumerang 2015 11                      Barry_Allen       DCCC
    Zelenyi_bumerang 2015 11                      Barry_Allen       DECD
    Zelenyi_bumerang 2015 11                     Peter_Parker       ABEA
    Zelenyi_bumerang 2015 12                      Barry_Allen       DDBE
    Zelenyi_bumerang 2015 12                     Matt_Murdock       BAEA
    Zelenyi_bumerang 2015 12                     Peter_Parker       EADB
        Vasuki_today 2015 01                     Matt_Murdock       ACEA
        Vasuki_today 2015 01                      Bruce_Wayne       DCDC
        Vasuki_today 2015 01                      Barry_Allen       AEAC
        Vasuki_today 2015 02                     Peter_Parker       EAAB
        Vasuki_today 2015 02                     Matt_Murdock       AEDE
        Vasuki_today 2015 02                     Matt_Murdock       CDDA
        Vasuki_today 2015 03                     Peter_Parker       BBAC
        Vasuki_today 2015 03                     Matt_Murdock       EDEE
        Vasuki_today 2015 03                      Barry_Allen       ECAD
        Vasuki_today 2015 04                      Bruce_Wayne       DCDA
        Vasuki_today 2015 04                     Matt_Murdock       BECB
        Vasuki_today 2015 04                      Bruce_Wayne       BBAD
        Vasuki_today 2015 05                    Harold_Jordan       BCCB
        Vasuki_today 2015 05                     Matt_Murdock       DCBA
        Vasuki_today 2015 05                     Peter_Parker       EEBA
        Vasuki_today 2015 06                      Barry_Allen       CCEA
        Vasuki_today 2015 06                      Barry_Allen       BABC
        Vasuki_today 2015 06                      Barry_Allen       DDAB
        Vasuki_today 2015 07                      Barry_Allen       BBDD
        Vasuki_today 2015 07                     Matt_Murdock       DCAC
        Vasuki_today 2015 07                      Bruce_Wayne       BADB
        Vasuki_today 2015 08                     Peter_Parker       EEAD
        Vasuki_today 2015 08                    Harold_Jordan       CDEE
        Vasuki_today 2015 08                    Harold_Jordan       ABDC
        Vasuki_today 2015 09                     Matt_Murdock       BBEB
        Vasuki_today 2015 09                     Matt_Murdock       CEBE
        Vasuki_today 2015 09                      Barry_Allen       ECBD
        Vasuki_today 2015 10                     Peter_Parker       AECA
        Vasuki_today 2015 10                    Harold_Jordan       BBCB
        Vasuki_today 2015 10                     Matt_Murdock       ADEA
        Vasuki_today 2015 11                      Barry_Allen       AADB
        Vasuki_today 2015 11                      Bruce_Wayne       DDAB
        Vasuki_today 2015 11                     Peter_Parker       AAAE
        Vasuki_today 2015 12                      Barry_Allen       EDAE
        Vasuki_today 2015 12                    Harold_Jordan       CCBC
        Vasuki_today 2015 12                      Bruce_Wayne       CABB
